tests/fixtures/vcd/simple_counter.vcd
$date
  Today
$end
$version
  generated for plugin test
$end
$timescale 1ns $end
$scope module tb $end
$var wire 1 ! clk $end
$var wire 1 " rst_n $end
$var wire 4 # counter $end
$upscope $end
$enddefinitions $end
#0
0!
0"
b0000 #
#5
1!
#10
0!
1"
#15
1!
b0001 #
#20
0!
#25
1!
b0010 #
#30
0!
#35
1!
b0011 #
#40
0!
#45
1!
b0100 #
#50
0!
#55
1!
b0101 #
#60
0!
#65
1!
b0110 #
#70
0!
#75
1!
b0111 #
#80
0!
#85
1!
b1000 #
#90
0!
#95
1!
b1001 #
#100
0!
#105
1!
b1010 #
#110
0!
#115
1!
b1011 #
